{
  "project_info": {
    "project_number": "664056278789",
    "project_id": "authentication5g",
    "storage_bucket": "authentication5g.appspot.com"
  },
  "client": [
    {
      "client_info": {
        "mobilesdk_app_id": "1:664056278789:android:c3f566fe9b141ebcc0116c",
        "android_client_info": {
          "package_name": "com.example.authentication"
        }
      },
      "oauth_client": [
        {
          "client_id": "664056278789-mlh1hfb4mij79f7t63dec2qtnfgv87r1.apps.googleusercontent.com",
          "client_type": 3
        }
      ],
      "api_key": [
        {
          "current_key": "AIzaSyCAzP7IsMOOfaLLujYh1NQCsO4m2kGFNaQ"
        }
      ],
      "services": {
        "appinvite_service": {
          "other_platform_oauth_client": [
            {
              "client_id": "664056278789-mlh1hfb4mij79f7t63dec2qtnfgv87r1.apps.googleusercontent.com",
              "client_type": 3
            }
          ]
        }
      }
    }
  ],
  "configuration_version": "1"
}